<!-- Generated by IcoMoon.io -->
<svg version="1.1" xmlns="http://www.w3.org/2000/svg" width="448" height="448" viewBox="0 0 448 448">
<title></title>
<g id="icomoon-ignore">
</g>
<path d="M416 240c-23.75-36.75-56.25-68.25-95.25-88.25 10 17 15.25 36.5 15.25 56.25 0 61.75-50.25 112-112 112s-112-50.25-112-112c0-19.75 5.25-39.25 15.25-56.25-39 20-71.5 51.5-95.25 88.25 42.75 66 111.75 112 192 112s149.25-46 192-112zM236 144c0-6.5-5.5-12-12-12-41.75 0-76 34.25-76 76 0 6.5 5.5 12 12 12s12-5.5 12-12c0-28.5 23.5-52 52-52 6.5 0 12-5.5 12-12zM448 240c0 6.25-2 12-5 17.25-46 75.75-130.25 126.75-219 126.75s-173-51.25-219-126.75c-3-5.25-5-11-5-17.25s2-12 5-17.25c46-75.5 130.25-126.75 219-126.75s173 51.25 219 126.75c3 5.25 5 11 5 17.25z"></path>
</svg>
